Tímataka - Mælaborð
…
# Birta niðuyrstöðurnar
empty_name_count

## [1] 3582

# Hlaup sem voru ekki með keppendur undir timataka_data
empty_names_per_hlaup <- timataka_data %>%
  group_by(hlaup_id) %>%
  summarise(Empty_Name_Count = sum(Name == "" | is.na(Name))) %>%
  filter(Empty_Name_Count > 0)  # Filter out hlaup_id with zero empty names

# Birta töfluna
empty_names_per_hlaup

## # A tibble: 41 × 2
##    hlaup_id Empty_Name_Count
##       <int>            <int>
##  1        2               11
##  2        3                2
##  3        4                3
##  4        5                3
##  5        6                1
##  6        7                1
##  7        8                2
##  8        9                2
##  9       10                3
## 10       11                1
## # ℹ 31 more rows
…
